{"success": true, "kind": "transactions", "cache_key": "today:page1", "last_updated": "2026-05-27 15:36:27", "payload": {"summary": {"total_revenue": 1986489.0, "total_transactions": 853, "avg_ticket": 2328.8264947245016, "success_rate": 100.0, "period": "today", "period_label": "Today"}, "page1": {"transactions": [{"id": "VK02388", "date": "2026-05-27", "branch": "08-VK", "category": "SKD", "department": "RM", "amount": 3500.0, "salesperson": "", "xn_id": "SLS/008/1FY27/VK02388", "xn_no": "VK02388", "itemcode": "26HQ5738464", "quantity": 1, "status": "completed"}, {"id": "VK02388", "date": "2026-05-27", "branch": "08-VK", "category": "SKD", "department": "RM", "amount": 13000.0, "salesperson": "", "xn_id": "SLS/008/1FY27/VK02388", "xn_no": "VK02388", "itemcode": "26HQ5784665", "quantity": 1, "status": "completed"}, {"id": "VK02387", "date": "2026-05-27", "branch": "08-VK", "category": "SPP", "department": "SP", "amount": 2000.0, "salesperson": "", "xn_id": "SLS/008/1FY27/VK02387", "xn_no": "VK02387", "itemcode": "26034207255", "quantity": 1, "status": "completed"}, {"id": "VK02387", "date": "2026-05-27", "branch": "08-VK", "category": "SPP", "department": "SP", "amount": 2000.0, "salesperson": "", "xn_id": "SLS/008/1FY27/VK02387", "xn_no": "VK02387", "itemcode": "26034207245", "quantity": 1, "status": "completed"}, {"id": "VK02387", "date": "2026-05-27", "branch": "08-VK", "category": "SPP", "department": "SP", "amount": 2000.0, "salesperson": "", "xn_id": "SLS/008/1FY27/VK02387", "xn_no": "VK02387", "itemcode": "26034201844", "quantity": 1, "status": "completed"}, {"id": "VK02387", "date": "2026-05-27", "branch": "08-VK", "category": "SPC", "department": "SP", "amount": 2000.0, "salesperson": "", "xn_id": "SLS/008/1FY27/VK02387", "xn_no": "VK02387", "itemcode": "26HQ5562772", "quantity": 1, "status": "completed"}, {"id": "VK02386", "date": "2026-05-27", "branch": "08-VK", "category": "SKD", "department": "RM", "amount": 8447.0, "salesperson": "", "xn_id": "SLS/008/1FY27/VK02386", "xn_no": "VK02386", "itemcode": "26036101130", "quantity": 1, "status": "completed"}, {"id": "VK02386", "date": "2026-05-27", "branch": "08-VK", "category": "SKD", "department": "RM", "amount": 18000.0, "salesperson": "", "xn_id": "SLS/008/1FY27/VK02386", "xn_no": "VK02386", "itemcode": "26HQ5784651", "quantity": 1, "status": "completed"}, {"id": "VK02385", "date": "2026-05-27", "branch": "08-VK", "category": "SKD", "department": "RM", "amount": 3500.0, "salesperson": "", "xn_id": "SLS/008/1FY27/VK02385", "xn_no": "VK02385", "itemcode": "26HQ5782917", "quantity": 1, "status": "completed"}, {"id": "VK02384", "date": "2026-05-27", "branch": "08-VK", "category": "SPP", "department": "SP", "amount": 2000.0, "salesperson": "", "xn_id": "SLS/008/1FY27/VK02384", "xn_no": "VK02384", "itemcode": "26034207063", "quantity": 1, "status": "completed"}, {"id": "VK02384", "date": "2026-05-27", "branch": "08-VK", "category": "SPP", "department": "SP", "amount": 800.0, "salesperson": "", "xn_id": "SLS/008/1FY27/VK02384", "xn_no": "VK02384", "itemcode": "26034209157", "quantity": 1, "status": "completed"}, {"id": "VK02384", "date": "2026-05-27", "branch": "08-VK", "category": "SPP", "department": "SP", "amount": 2000.0, "salesperson": "", "xn_id": "SLS/008/1FY27/VK02384", "xn_no": "VK02384", "itemcode": "26HQ5813831", "quantity": 1, "status": "completed"}, {"id": "VK02384", "date": "2026-05-27", "branch": "08-VK", "category": "SPP", "department": "SP", "amount": 3495.0, "salesperson": "", "xn_id": "SLS/008/1FY27/VK02384", "xn_no": "VK02384", "itemcode": "26HQ5738899", "quantity": 1, "status": "completed"}, {"id": "VK02384", "date": "2026-05-27", "branch": "08-VK", "category": "SPC", "department": "SP", "amount": 2500.0, "salesperson": "", "xn_id": "SLS/008/1FY27/VK02384", "xn_no": "VK02384", "itemcode": "26034210102", "quantity": 1, "status": "completed"}, {"id": "VK02384", "date": "2026-05-27", "branch": "08-VK", "category": "SPC", "department": "SP", "amount": 2500.0, "salesperson": "", "xn_id": "SLS/008/1FY27/VK02384", "xn_no": "VK02384", "itemcode": "26HQ5791774", "quantity": 1, "status": "completed"}, {"id": "VK02384", "date": "2026-05-27", "branch": "08-VK", "category": "SPC", "department": "SP", "amount": 2500.0, "salesperson": "", "xn_id": "SLS/008/1FY27/VK02384", "xn_no": "VK02384", "itemcode": "26HQ5820828", "quantity": 1, "status": "completed"}, {"id": "VK02384", "date": "2026-05-27", "branch": "08-VK", "category": "SPC", "department": "SP", "amount": 3000.0, "salesperson": "", "xn_id": "SLS/008/1FY27/VK02384", "xn_no": "VK02384", "itemcode": "26HQ2173901", "quantity": 1, "status": "completed"}, {"id": "VK02384", "date": "2026-05-27", "branch": "08-VK", "category": "SPC", "department": "SP", "amount": 2000.0, "salesperson": "", "xn_id": "SLS/008/1FY27/VK02384", "xn_no": "VK02384", "itemcode": "26HQ5829268", "quantity": 1, "status": "completed"}, {"id": "VK02384", "date": "2026-05-27", "branch": "08-VK", "category": "SPC", "department": "SP", "amount": 2000.0, "salesperson": "", "xn_id": "SLS/008/1FY27/VK02384", "xn_no": "VK02384", "itemcode": "26HQ5829312", "quantity": 1, "status": "completed"}, {"id": "VK02383", "date": "2026-05-27", "branch": "08-VK", "category": "JWL", "department": "JW", "amount": 5600.0, "salesperson": "", "xn_id": "SLS/008/1FY27/VK02383", "xn_no": "VK02383", "itemcode": "26HQ5710753", "quantity": 1, "status": "completed"}, {"id": "VK02383", "date": "2026-05-27", "branch": "08-VK", "category": "EMB", "department": "SA", "amount": 18000.0, "salesperson": "", "xn_id": "SLS/008/1FY27/VK02383", "xn_no": "VK02383", "itemcode": "26HQ5829531", "quantity": 1, "status": "completed"}, {"id": "VK02382", "date": "2026-05-27", "branch": "08-VK", "category": "K2P", "department": "KUR", "amount": 2495.0, "salesperson": "", "xn_id": "SLS/008/1FY27/VK02382", "xn_no": "VK02382", "itemcode": "26HQ5723212", "quantity": 1, "status": "completed"}, {"id": "VK02381", "date": "2026-05-27", "branch": "08-VK", "category": "PLN", "department": "SA", "amount": 2000.0, "salesperson": "", "xn_id": "SLS/008/1FY27/VK02381", "xn_no": "VK02381", "itemcode": "26HQ3139224", "quantity": 1, "status": "completed"}, {"id": "VK02381", "date": "2026-05-27", "branch": "08-VK", "category": "PLN", "department": "SA", "amount": 2000.0, "salesperson": "", "xn_id": "SLS/008/1FY27/VK02381", "xn_no": "VK02381", "itemcode": "26HQ3139225", "quantity": 1, "status": "completed"}, {"id": "VK02381", "date": "2026-05-27", "branch": "08-VK", "category": "WOV", "department": "SA", "amount": 3000.0, "salesperson": "", "xn_id": "SLS/008/1FY27/VK02381", "xn_no": "VK02381", "itemcode": "26HQ5143718", "quantity": 1, "status": "completed"}, {"id": "VK02381", "date": "2026-05-27", "branch": "08-VK", "category": "WOV", "department": "SA", "amount": 3000.0, "salesperson": "", "xn_id": "SLS/008/1FY27/VK02381", "xn_no": "VK02381", "itemcode": "26HQ5824496", "quantity": 1, "status": "completed"}, {"id": "VK02381", "date": "2026-05-27", "branch": "08-VK", "category": "WOV", "department": "SA", "amount": 3000.0, "salesperson": "", "xn_id": "SLS/008/1FY27/VK02381", "xn_no": "VK02381", "itemcode": "26HQ5824553", "quantity": 1, "status": "completed"}, {"id": "VK02380", "date": "2026-05-27", "branch": "08-VK", "category": "PLN", "department": "SA", "amount": 2000.0, "salesperson": "", "xn_id": "SLS/008/1FY27/VK02380", "xn_no": "VK02380", "itemcode": "26HQ2141642", "quantity": 1, "status": "completed"}, {"id": "VK02380", "date": "2026-05-27", "branch": "08-VK", "category": "WOV", "department": "SA", "amount": 2000.0, "salesperson": "", "xn_id": "SLS/008/1FY27/VK02380", "xn_no": "VK02380", "itemcode": "26HQ3135375", "quantity": 1, "status": "completed"}, {"id": "VK02379", "date": "2026-05-27", "branch": "08-VK", "category": "JWL", "department": "JW", "amount": 2400.0, "salesperson": "", "xn_id": "SLS/008/1FY27/VK02379", "xn_no": "VK02379", "itemcode": "26HQ5731676", "quantity": 1, "status": "completed"}, {"id": "VK02379", "date": "2026-05-27", "branch": "08-VK", "category": "JWL", "department": "JW", "amount": 2400.0, "salesperson": "", "xn_id": "SLS/008/1FY27/VK02379", "xn_no": "VK02379", "itemcode": "26HQ5731692", "quantity": 1, "status": "completed"}, {"id": "VK02379", "date": "2026-05-27", "branch": "08-VK", "category": "JWL", "department": "JW", "amount": 2200.0, "salesperson": "", "xn_id": "SLS/008/1FY27/VK02379", "xn_no": "VK02379", "itemcode": "26HQ5712642", "quantity": 1, "status": "completed"}, {"id": "VK02379", "date": "2026-05-27", "branch": "08-VK", "category": "JWL", "department": "JW", "amount": 800.0, "salesperson": "", "xn_id": "SLS/008/1FY27/VK02379", "xn_no": "VK02379", "itemcode": "26HQ5814321", "quantity": 1, "status": "completed"}, {"id": "VK02379", "date": "2026-05-27", "branch": "08-VK", "category": "JWL", "department": "JW", "amount": 1000.0, "salesperson": "", "xn_id": "SLS/008/1FY27/VK02379", "xn_no": "VK02379", "itemcode": "26HQ5815567", "quantity": 1, "status": "completed"}, {"id": "VK02379", "date": "2026-05-27", "branch": "08-VK", "category": "JWL", "department": "JW", "amount": 1000.0, "salesperson": "", "xn_id": "SLS/008/1FY27/VK02379", "xn_no": "VK02379", "itemcode": "26HQ5814293", "quantity": 1, "status": "completed"}, {"id": "V300920", "date": "2026-05-27", "branch": "16-V3S", "category": "SPC", "department": "SP", "amount": 1500.0, "salesperson": "", "xn_id": "SLS/016/1FY27/V300920", "xn_no": "V300920", "itemcode": "26HQ5810599", "quantity": 1, "status": "completed"}, {"id": "V300919", "date": "2026-05-27", "branch": "16-V3S", "category": "CRS", "department": "KUR", "amount": -2000.0, "salesperson": "", "xn_id": "SLS/016/1FY27/V300919", "xn_no": "V300919", "itemcode": "26HQ5786801", "quantity": -1, "status": "completed"}, {"id": "V300919", "date": "2026-05-27", "branch": "16-V3S", "category": "SKD", "department": "RM", "amount": 2500.0, "salesperson": "", "xn_id": "SLS/016/1FY27/V300919", "xn_no": "V300919", "itemcode": "26HQ5789878", "quantity": 1, "status": "completed"}, {"id": "V300919", "date": "2026-05-27", "branch": "16-V3S", "category": "SKD", "department": "RM", "amount": 3500.0, "salesperson": "", "xn_id": "SLS/016/1FY27/V300919", "xn_no": "V300919", "itemcode": "26HQ5755107", "quantity": 1, "status": "completed"}, {"id": "V300918", "date": "2026-05-27", "branch": "16-V3S", "category": "SPP", "department": "SP", "amount": 1500.0, "salesperson": "", "xn_id": "SLS/016/1FY27/V300918", "xn_no": "V300918", "itemcode": "26HQ5386591", "quantity": 1, "status": "completed"}, {"id": "TK00893", "date": "2026-05-27", "branch": "84-TLK", "category": "K2P", "department": "KUR", "amount": 1500.0, "salesperson": "", "xn_id": "SLS/084/1FY27/TK00893", "xn_no": "TK00893", "itemcode": "26HQ5644725", "quantity": 1, "status": "completed"}, {"id": "TA00910", "date": "2026-05-27", "branch": "61-TAT", "category": "SKD", "department": "RM", "amount": 4000.0, "salesperson": "", "xn_id": "SLS/061/1FY27/TA00910", "xn_no": "TA00910", "itemcode": "26HQ5784269", "quantity": 1, "status": "completed"}, {"id": "TA00909", "date": "2026-05-27", "branch": "61-TAT", "category": "PLN", "department": "SA", "amount": 3000.0, "salesperson": "", "xn_id": "SLS/061/1FY27/TA00909", "xn_no": "TA00909", "itemcode": "26HQ3169642", "quantity": 1, "status": "completed"}, {"id": "TA00908", "date": "2026-05-27", "branch": "61-TAT", "category": "K2P", "department": "KUR", "amount": 4000.0, "salesperson": "", "xn_id": "SLS/061/1FY27/TA00908", "xn_no": "TA00908", "itemcode": "26HQ5778488", "quantity": 1, "status": "completed"}, {"id": "TA00908", "date": "2026-05-27", "branch": "61-TAT", "category": "K2P", "department": "KUR", "amount": 3000.0, "salesperson": "", "xn_id": "SLS/061/1FY27/TA00908", "xn_no": "TA00908", "itemcode": "26HQ5787436", "quantity": 1, "status": "completed"}, {"id": "TA00908", "date": "2026-05-27", "branch": "61-TAT", "category": "SKD", "department": "RM", "amount": 3500.0, "salesperson": "", "xn_id": "SLS/061/1FY27/TA00908", "xn_no": "TA00908", "itemcode": "26HQ5799793", "quantity": 1, "status": "completed"}, {"id": "TA00907", "date": "2026-05-27", "branch": "61-TAT", "category": "K2P", "department": "KUR", "amount": 3000.0, "salesperson": "", "xn_id": "SLS/061/1FY27/TA00907", "xn_no": "TA00907", "itemcode": "26HQ5770231", "quantity": 1, "status": "completed"}, {"id": "TA00907", "date": "2026-05-27", "branch": "61-TAT", "category": "K2P", "department": "KUR", "amount": 3000.0, "salesperson": "", "xn_id": "SLS/061/1FY27/TA00907", "xn_no": "TA00907", "itemcode": "26HQ5787196", "quantity": 1, "status": "completed"}, {"id": "T200681", "date": "2026-05-27", "branch": "85-TAT2", "category": "SKD", "department": "RM", "amount": -4995.0, "salesperson": "", "xn_id": "SLS/085/1FY27/T200681", "xn_no": "T200681", "itemcode": "26HQ5717769", "quantity": -1, "status": "completed"}, {"id": "T200681", "date": "2026-05-27", "branch": "85-TAT2", "category": "SKD", "department": "RM", "amount": 4995.0, "salesperson": "", "xn_id": "SLS/085/1FY27/T200681", "xn_no": "T200681", "itemcode": "26HQ5717734", "quantity": 1, "status": "completed"}], "total_count": 853, "page": 1, "page_size": 50, "total_pages": 18, "period": "today", "period_label": "Today"}}}